<?xml version="1.0" encoding="windows-1252" standalone="no"?>
<!DOCTYPE log SYSTEM "logger.dtd">
<log>
<record>
  <date>2022-09-27T04:33:22.158891100Z</date>
  <millis>1664253202158</millis>
  <nanos>891100</nanos>
  <sequence>0</sequence>
  <logger>global</logger>
  <level>SEVERE</level>
  <class>com.gl.main.App</class>
  <method>main</method>
  <thread>1</thread>
  <message>severe message</message>
</record>
<record>
  <date>2022-09-27T04:33:22.219891400Z</date>
  <millis>1664253202219</millis>
  <nanos>891400</nanos>
  <sequence>1</sequence>
  <logger>global</logger>
  <level>WARNING</level>
  <class>com.gl.main.App</class>
  <method>main</method>
  <thread>1</thread>
  <message>warning message</message>
</record>
<record>
  <date>2022-09-27T04:33:22.229446500Z</date>
  <millis>1664253202229</millis>
  <nanos>446500</nanos>
  <sequence>2</sequence>
  <logger>global</logger>
  <level>INFO</level>
  <class>com.gl.main.App</class>
  <method>main</method>
  <thread>1</thread>
  <message>info message</message>
</record>
<?xml version="1.0" encoding="windows-1252" standalone="no"?>
<!DOCTYPE log SYSTEM "logger.dtd">
<log>
<record>
  <date>2022-09-29T04:26:12.003803100Z</date>
  <millis>1664425572003</millis>
  <nanos>803100</nanos>
  <sequence>0</sequence>
  <logger>global</logger>
  <level>SEVERE</level>
  <class>com.gl.main.App</class>
  <method>main</method>
  <thread>1</thread>
  <message>severe message</message>
</record>
<record>
  <date>2022-09-29T04:26:12.116837100Z</date>
  <millis>1664425572116</millis>
  <nanos>837100</nanos>
  <sequence>1</sequence>
  <logger>global</logger>
  <level>WARNING</level>
  <class>com.gl.main.App</class>
  <method>main</method>
  <thread>1</thread>
  <message>warning message</message>
</record>
<record>
  <date>2022-09-29T04:26:12.117835200Z</date>
  <millis>1664425572117</millis>
  <nanos>835200</nanos>
  <sequence>2</sequence>
  <logger>global</logger>
  <level>INFO</level>
  <class>com.gl.main.App</class>
  <method>main</method>
  <thread>1</thread>
  <message>info message</message>
</record>
